<?xml version="1.0" encoding="UTF-8"?>
<testng-results ignored="15" total="16" passed="1" failed="0" skipped="0">
  <reporter-output>
  </reporter-output>
  <suite started-at="2020-03-12T17:38:08Z" name="DashboardUI.Login" finished-at="2020-03-12T17:38:20Z" duration-ms="11624">
    <groups>
    </groups>
    <test started-at="2020-03-12T17:38:08Z" name="Command line test" finished-at="2020-03-12T17:38:20Z" duration-ms="11624">
      <class name="DashboardUI.Login">
        <test-method is-config="true" signature="start()[pri:0, instance:DashboardUI.Login@48fa0f47]" started-at="2020-03-12T13:38:08Z" name="start" finished-at="2020-03-12T13:38:13Z" duration-ms="4679" status="PASS">
          <reporter-output>
          </reporter-output>
        </test-method> <!-- start -->
        <test-method is-config="true" signature="beforeTest(org.testng.ITestContext, java.lang.reflect.Method)[pri:0, instance:DashboardUI.Login@48fa0f47]" started-at="2020-03-12T13:38:13Z" name="beforeTest" finished-at="2020-03-12T13:38:13Z" duration-ms="2" status="PASS">
          <params>
            <param index="0">
              <value>
                <![CDATA[org.testng.TestRunner@2ce86164]]>
              </value>
            </param>
            <param index="1">
              <value>
                <![CDATA[public void DashboardUI.Login.C899() throws java.lang.Exception]]>
              </value>
            </param>
          </params>
          <reporter-output>
          </reporter-output>
        </test-method> <!-- beforeTest -->
        <test-method signature="C899()[pri:0, instance:DashboardUI.Login@48fa0f47]" started-at="2020-03-12T13:38:13Z" name="C899" finished-at="2020-03-12T13:38:18Z" duration-ms="4827" status="PASS">
          <reporter-output>
          </reporter-output>
        </test-method> <!-- C899 -->
        <test-method is-config="true" signature="end()[pri:0, instance:DashboardUI.Login@48fa0f47]" started-at="2020-03-12T13:38:18Z" name="end" finished-at="2020-03-12T13:38:20Z" duration-ms="2088" status="PASS">
          <reporter-output>
          </reporter-output>
        </test-method> <!-- end -->
      </class> <!-- DashboardUI.Login -->
    </test> <!-- Command line test -->
  </suite> <!-- DashboardUI.Login -->
</testng-results>
